%YAML 1.1
%TAG !u! tag:unity3d.com,2011:
--- !u!114 &11400000
MonoBehaviour:
  m_ObjectHideFlags: 0
  m_PrefabParentObject: {fileID: 0}
  m_PrefabInternal: {fileID: 0}
  m_GameObject: {fileID: 0}
  m_Enabled: 1
  m_EditorHideFlags: 0
  m_Script: {fileID: 11500000, guid: 6e3fed1ba88ad944b8a2251d1f18e27d, type: 3}
  m_Name: SpaceShooter_GameSettings
  m_EditorClassIdentifier: 
  playerSpeed: 5
  playerHP: 50
  playerDmg: 0
  bulletDmg: 2
  bulletSpeed: 2
  asteroidSpeed: 1.5
  asteroidHP: 10
  asteroidSpawnRate: 10
  asteroidSpawnMultiplier: 1
  mapSpeed: 2
  mapLength: 2
  timeScale: 15
